%YAML 1.1
%TAG !u! tag:unity3d.com,2011:
--- !u!114 &11400000
MonoBehaviour:
  m_ObjectHideFlags: 0
  m_CorrespondingSourceObject: {fileID: 0}
  m_PrefabInstance: {fileID: 0}
  m_PrefabAsset: {fileID: 0}
  m_GameObject: {fileID: 0}
  m_Enabled: 1
  m_EditorHideFlags: 0
  m_Script: {fileID: 11500000, guid: e87f84c13a931aa4a9078f0d492bfbec, type: 3}
  m_Name: 0B056FE0-CEF7-4862-8A48-39212787FCAB
  m_EditorClassIdentifier: 
  objectName: Music
  id: 3991942870
  guid: 0B056FE0-CEF7-4862-8A48-39212787FCAB
